<?xml version="1.0" encoding="UTF-8" standalone="no"?>
<svg
   xmlns:dc="http://purl.org/dc/elements/1.1/"
   xmlns:cc="http://creativecommons.org/ns#"
   xmlns:rdf="http://www.w3.org/1999/02/22-rdf-syntax-ns#"
   xmlns:svg="http://www.w3.org/2000/svg"
   xmlns="http://www.w3.org/2000/svg"
   xmlns:xlink="http://www.w3.org/1999/xlink"
   width="125"
   height="165"
   viewBox="0 0 33.072914 43.656253"
   version="1.1"
   id="svg8">
  <defs
     id="defs2">
    <linearGradient
       id="fill">
      <stop
         id="stop849"
         offset="0"
         style="stop-color:#cccccc;stop-opacity:1;" />
      <stop
         id="stop851"
         offset="1"
         style="stop-color:#ffffff;stop-opacity:1" />
    </linearGradient>
    <linearGradient
       xlink:href="#fill"
       id="linearGradient847"
       gradientUnits="userSpaceOnUse"
       x1="18.520834"
       y1="293.03122"
       x2="18.520834"
       y2="258.63541"
       gradientTransform="matrix(-1,0,0,1,31.637554,1.582037)" />
    <filter
       style="color-interpolation-filters:sRGB"
       id="filter945"
       x="-0.14526317"
       width="1.2905263"
       y="-0.10222222"
       height="1.2044444">
      <feGaussianBlur
         stdDeviation="1.5213542"
         id="feGaussianBlur947" />
    </filter>
  </defs>
  <metadata
     id="metadata5">
    <rdf:RDF>
      <cc:Work
         rdf:about="">
        <dc:format>image/svg+xml</dc:format>
        <dc:type
           rdf:resource="http://purl.org/dc/dcmitype/StillImage" />
        <dc:title />
      </cc:Work>
    </rdf:RDF>
  </metadata>
  <g
     id="layer1"
     transform="translate(2.7582766,-258.89453)">
    <path
       style="opacity:0.98999999;fill:#666666;fill-opacity:0.4;stroke:none;stroke-width:1.98199999;stroke-miterlimit:4;stroke-dasharray:none;stroke-opacity:1;filter:url(#filter945)"
       d="m 1.2104734,291.96745 -2.4e-6,-11.90626 1.322919,-1.32291 h 3.968748 v 5.29166 l 2e-6,-14.55208 1.3229162,-1.32292 3.9687488,-1e-5 10e-7,13.22919 10e-7,-15.87502 1.322916,-1.32291 h 2.645834 l 1.322916,1.32291 -1e-6,15.87502 v -14.55209 l 3.968751,-10e-6 1.322918,1.32292 -3e-6,14.55208 v -10.58333 h 2.645835 l 1.322917,1.32292 -2e-6,19.84375 -2.645834,1.32291 1.322919,3.96876 -17.1979158,1e-5 -2.6458334,-3.96876 -2.6458338,-1.32292 z"
       id="shadow"
       transform="matrix(-1,0,0,1,27.55636,0)" />
    <path
       id="shape"
       d="m 26.345886,287.9987 2e-6,-11.90626 -1.322918,-1.32291 h -3.968749 v 5.29166 l -10e-7,-14.55208 -1.322917,-1.32292 -3.968749,-1e-5 -10e-7,13.22919 v -15.87502 l -1.322916,-1.32291 h -2.645834 l -1.322916,1.32291 v 15.87501 -14.55208 l -3.9687505,-10e-6 -1.322917,1.32292 10e-7,14.55208 v -10.58333 h -2.645834 l -1.322917,1.32292 10e-7,19.84375 2.645834,1.32291 -2e-6,3.96876 H 19.731304 l 2.645832,-3.96875 2.645834,-1.32292 z"
       style="opacity:1;fill:url(#linearGradient847);fill-opacity:1;stroke:#333333;stroke-width:1.32291663;stroke-miterlimit:4;stroke-dasharray:none;stroke-opacity:1" />
  </g>
</svg>
