<?xml version="1.0" encoding="UTF-8" standalone="no"?>
<svg
   xmlns:dc="http://purl.org/dc/elements/1.1/"
   xmlns:cc="http://creativecommons.org/ns#"
   xmlns:rdf="http://www.w3.org/1999/02/22-rdf-syntax-ns#"
   xmlns:svg="http://www.w3.org/2000/svg"
   xmlns="http://www.w3.org/2000/svg"
   xmlns:xlink="http://www.w3.org/1999/xlink"
   width="110"
   height="70"
   viewBox="0 0 29.104167 18.520833"
   version="1.1"
   id="svg8">
  <defs
     id="defs2">
    <linearGradient
       id="fill">
      <stop
         id="stop849"
         offset="0"
         style="stop-color:#cccccc;stop-opacity:1;" />
      <stop
         id="stop851"
         offset="1"
         style="stop-color:#ffffff;stop-opacity:1" />
    </linearGradient>
    <linearGradient
       xlink:href="#fill"
       id="linearGradient846"
       gradientUnits="userSpaceOnUse"
       gradientTransform="translate(1.3229301,-1.3228622)"
       x1="-2.7582901"
       y1="297.25906"
       x2="-2.7582901"
       y2="286.67575" />
    <filter
       style="color-interpolation-filters:sRGB"
       id="filter844"
       x="-0.19499996"
       width="1.3899999"
       y="-0.086666673"
       height="1.1733333">
      <feGaussianBlur
         stdDeviation="0.8598959"
         id="feGaussianBlur846" />
    </filter>
  </defs>
  <metadata
     id="metadata5">
    <rdf:RDF>
      <cc:Work
         rdf:about="">
        <dc:format>image/svg+xml</dc:format>
        <dc:type
           rdf:resource="http://purl.org/dc/dcmitype/StillImage" />
        <dc:title />
      </cc:Work>
    </rdf:RDF>
  </metadata>
  <g
     id="layer1"
     transform="translate(2.7582766,-284.02997)">
    <path
       d="m 10.470888,281.38412 -5.2916656,-5.29166 -5.29166976,5.29167 2.64583576,1.32291 v 10.58333 l -2.64583576,1.32292 5.29166976,5.29167 5.2916596,-5.29167 -2.6458266,-1.32292 v -10.58333 z"
       style="opacity:1;fill:#666666;fill-opacity:0.4;stroke:none;stroke-width:1.32291663;stroke-linecap:butt;stroke-linejoin:miter;stroke-miterlimit:4;stroke-dasharray:none;stroke-opacity:1;filter:url(#filter844)"
       id="shadow"
       transform="rotate(-90,11.793813,287.99871)" />
    <path
       id="shape"
       style="opacity:1;fill:url(#linearGradient846);fill-opacity:1;stroke:#333333;stroke-width:1.32291663;stroke-linecap:butt;stroke-linejoin:miter;stroke-miterlimit:4;stroke-dasharray:none;stroke-opacity:1"
       d="m 5.1792201,285.35289 -5.29166,5.29167 5.29167,5.29167 1.32291,-2.64584 H 17.08547 l 1.32292,2.64584 5.29167,-5.29167 -5.29167,-5.29166 -1.32292,2.64582 H 6.5021401 Z" />
  </g>
</svg>
