<?xml version="1.0" encoding="UTF-8" standalone="no"?>
<svg
   xmlns:dc="http://purl.org/dc/elements/1.1/"
   xmlns:cc="http://creativecommons.org/ns#"
   xmlns:rdf="http://www.w3.org/1999/02/22-rdf-syntax-ns#"
   xmlns:svg="http://www.w3.org/2000/svg"
   xmlns="http://www.w3.org/2000/svg"
   xmlns:xlink="http://www.w3.org/1999/xlink"
   width="120"
   height="125"
   viewBox="0 0 31.75 33.072917"
   version="1.1"
   id="svg8">
  <defs
     id="defs2">
    <linearGradient
       id="fill">
      <stop
         id="stop849"
         offset="0"
         style="stop-color:#cccccc;stop-opacity:1;" />
      <stop
         id="stop851"
         offset="1"
         style="stop-color:#ffffff;stop-opacity:1" />
    </linearGradient>
    <linearGradient
       xlink:href="#fill"
       id="linearGradient846"
       gradientUnits="userSpaceOnUse"
       gradientTransform="rotate(180,11.793807,287.33723)"
       x1="14.43964"
       y1="280.06116"
       x2="14.43964"
       y2="303.87366" />
    <filter
       style="color-interpolation-filters:sRGB"
       id="filter825"
       x="-0.12"
       width="1.24"
       y="-0.12"
       height="1.24">
      <feGaussianBlur
         stdDeviation="1.190625"
         id="feGaussianBlur827" />
    </filter>
  </defs>
  <metadata
     id="metadata5">
    <rdf:RDF>
      <cc:Work
         rdf:about="">
        <dc:format>image/svg+xml</dc:format>
        <dc:type
           rdf:resource="http://purl.org/dc/dcmitype/StillImage" />
        <dc:title />
      </cc:Work>
    </rdf:RDF>
  </metadata>
  <g
     id="layer1"
     transform="translate(2.7582766,-269.47788)">
    <path
       d="m 19.731307,291.96746 5.291667,-5.29166 -5.291667,-5.29167 z m -9.260417,3.96875 2.645833,2.64584 2.645834,-2.64584 v -18.52083 l -2.645834,-2.64583 -2.645833,2.64583 z M 6.5021401,281.38413 v 10.58333 L 1.210474,286.6758 Z"
       style="opacity:1;fill:#666666;fill-opacity:0.4;stroke:none;stroke-width:1.32291663;stroke-linecap:butt;stroke-linejoin:miter;stroke-miterlimit:4;stroke-dasharray:none;stroke-opacity:1;filter:url(#filter825)"
       id="shadow" />
    <path
       id="shape"
       style="opacity:1;fill:url(#linearGradient846);fill-opacity:1;stroke:#333333;stroke-width:1.32291663;stroke-linecap:butt;stroke-linejoin:miter;stroke-miterlimit:4;stroke-dasharray:none;stroke-opacity:1"
       d="m 19.731307,287.99871 5.291667,-5.29166 -5.291667,-5.29167 z m -9.260417,3.96875 2.645833,2.64584 2.645834,-2.64584 v -18.52083 l -2.645834,-2.64583 -2.645833,2.64583 z M 6.5021401,277.41538 v 10.58333 l -5.2916666,-5.29166 z" />
  </g>
</svg>
