<?xml version="1.0" encoding="UTF-8" standalone="no"?>
<svg
   xmlns:dc="http://purl.org/dc/elements/1.1/"
   xmlns:cc="http://creativecommons.org/ns#"
   xmlns:rdf="http://www.w3.org/1999/02/22-rdf-syntax-ns#"
   xmlns:svg="http://www.w3.org/2000/svg"
   xmlns="http://www.w3.org/2000/svg"
   xmlns:xlink="http://www.w3.org/1999/xlink"
   width="125"
   height="125"
   viewBox="0 0 33.072914 33.072918"
   version="1.1"
   id="svg8">
  <defs
     id="defs2">
    <linearGradient
       id="fill">
      <stop
         id="stop849"
         offset="0"
         style="stop-color:#cccccc;stop-opacity:1;" />
      <stop
         id="stop851"
         offset="1"
         style="stop-color:#ffffff;stop-opacity:1" />
    </linearGradient>
    <linearGradient
       xlink:href="#fill"
       id="linearGradient847"
       gradientUnits="userSpaceOnUse"
       x1="2.645834"
       y1="293.03125"
       x2="2.645834"
       y2="269.21875"
       gradientTransform="translate(-4.081194,1.582037)" />
    <filter
       style="color-interpolation-filters:sRGB"
       id="filter844"
       x="-0.11684208"
       width="1.2336842"
       y="-0.12333336"
       height="1.2466667">
      <feGaussianBlur
         stdDeviation="1.2236977"
         id="feGaussianBlur846" />
    </filter>
  </defs>
  <metadata
     id="metadata5">
    <rdf:RDF>
      <cc:Work
         rdf:about="">
        <dc:format>image/svg+xml</dc:format>
        <dc:type
           rdf:resource="http://purl.org/dc/dcmitype/StillImage" />
        <dc:title />
      </cc:Work>
    </rdf:RDF>
  </metadata>
  <g
     id="layer1"
     transform="translate(2.7582766,-269.47787)">
    <path
       style="opacity:1;fill:#666666;fill-opacity:0.4;stroke:none;stroke-width:1.32291663;stroke-miterlimit:4;stroke-dasharray:none;stroke-opacity:1;filter:url(#filter844)"
       d="m 1.2104734,291.96745 -1.4e-6,-11.90626 1.322918,-1.32291 h 3.968749 v 5.29166 l 1e-6,-6.61458 1.3229162,-1.32292 3.9687508,10e-6 v 5.29167 -5.29167 l 1.322916,-1.32291 h 2.645834 l 1.322916,1.32291 v 5.29166 -5.29166 l 3.96875,-10e-6 1.322917,1.32292 -1e-6,5.29166 v -3.96874 h 2.645834 l 1.322917,1.32292 -1e-6,13.22916 -2.645834,1.32291 2e-6,3.96876 H 7.8250556 L 5.1792238,294.61328 2.53339,293.29036 Z"
       id="shadow" />
    <path
       id="shape"
       d="m 1.2104734,287.9987 -1.4e-6,-11.90626 1.322918,-1.32291 h 3.968749 v 5.29166 l 1e-6,-6.61458 1.3229162,-1.32292 3.9687508,10e-6 v 5.29167 -5.29167 l 1.322916,-1.32291 h 2.645834 l 1.322916,1.32291 v 5.29166 -5.29166 l 3.96875,-10e-6 1.322917,1.32292 -1e-6,5.29166 v -3.96874 h 2.645834 l 1.322917,1.32292 -1e-6,13.22916 -2.645834,1.32291 2e-6,3.96876 H 7.8250556 L 5.1792238,290.64453 2.53339,289.32161 Z"
       style="opacity:1;fill:url(#linearGradient847);fill-opacity:1;stroke:#333333;stroke-width:1.32291663;stroke-miterlimit:4;stroke-dasharray:none;stroke-opacity:1" />
  </g>
</svg>
