<?xml version="1.0" encoding="UTF-8" standalone="no"?>
<svg
   xmlns:dc="http://purl.org/dc/elements/1.1/"
   xmlns:cc="http://creativecommons.org/ns#"
   xmlns:rdf="http://www.w3.org/1999/02/22-rdf-syntax-ns#"
   xmlns:svg="http://www.w3.org/2000/svg"
   xmlns="http://www.w3.org/2000/svg"
   xmlns:xlink="http://www.w3.org/1999/xlink"
   width="120"
   height="135"
   viewBox="0 0 31.75 35.718751"
   version="1.1"
   id="svg8">
  <defs
     id="defs2">
    <linearGradient
       id="fill">
      <stop
         id="stop849"
         offset="0"
         style="stop-color:#cccccc;stop-opacity:1;" />
      <stop
         id="stop851"
         offset="1"
         style="stop-color:#ffffff;stop-opacity:1" />
    </linearGradient>
    <linearGradient
       xlink:href="#fill"
       id="linearGradient829"
       gradientUnits="userSpaceOnUse"
       gradientTransform="rotate(-30,84.904038,412.73671)"
       x1="71.83947"
       y1="262.6864"
       x2="82.422806"
       y2="244.35555" />
    <linearGradient
       xlink:href="#fill"
       id="linearGradient881"
       gradientUnits="userSpaceOnUse"
       gradientTransform="rotate(-30,84.904037,412.73671)"
       x1="69.193634"
       y1="267.26913"
       x2="82.422806"
       y2="244.35555" />
    <filter
       style="color-interpolation-filters:sRGB"
       id="filter883"
       x="-0.12666667"
       width="1.2533333"
       y="-0.11400001"
       height="1.228">
      <feGaussianBlur
         stdDeviation="1.2567708"
         id="feGaussianBlur885" />
    </filter>
  </defs>
  <metadata
     id="metadata5">
    <rdf:RDF>
      <cc:Work
         rdf:about="">
        <dc:format>image/svg+xml</dc:format>
        <dc:type
           rdf:resource="http://purl.org/dc/dcmitype/StillImage" />
        <dc:title />
      </cc:Work>
    </rdf:RDF>
  </metadata>
  <g
     id="layer1"
     transform="translate(2.7582766,-266.83204)">
    <path
       id="shadow"
       style="opacity:1;fill:#666666;fill-opacity:0.4;stroke:none;stroke-width:1.98199999;stroke-linecap:butt;stroke-linejoin:miter;stroke-miterlimit:4;stroke-dasharray:none;stroke-opacity:1;filter:url(#filter883)"
       d="M 25.022974,298.58203 V 280.0612 H 6.5021394 v 18.52083 z M 1.2104735,272.1237 l 1.9021084,21.81541 5.9056614,-0.3545 3.7914997,3.92127 4.582717,-2.64582 -1.500115,-5.2442 3.259779,-4.93718 z" />
    <path
       style="opacity:1;fill:url(#linearGradient881);fill-opacity:1;stroke:#333333;stroke-width:1.32291663;stroke-linecap:butt;stroke-linejoin:miter;stroke-miterlimit:2;stroke-dasharray:none;stroke-opacity:1"
       d="m 1.2104735,268.15495 1.9021084,21.81541 5.9056614,-0.3545 3.7914997,3.92127 4.582717,-2.64582 -1.500115,-5.2442 3.259779,-4.93718 z"
       id="shape" />
    <path
       style="opacity:1;fill:url(#linearGradient829);fill-opacity:1;stroke:#333333;stroke-width:1.32291663;stroke-linecap:butt;stroke-linejoin:miter;stroke-miterlimit:4;stroke-dasharray:none;stroke-opacity:1"
       d="M 25.022975,294.61328 V 276.09245 H 6.5021402 v 18.52083 z"
       id="overlay" />
    <g
       id="animation">
      <path
         id="frame.1"
         style="opacity:1;fill:#ff9999;fill-opacity:0.6;stroke:#333333;stroke-width:0.5291667;stroke-linecap:butt;stroke-linejoin:miter;stroke-miterlimit:4;stroke-dasharray:none;stroke-opacity:1"
         d="M 17.085474,291.96745 H 14.43964 v -2.64583 h 2.645833 z m 3.96875,-5.29166 -3.968749,-1e-5 -10e-7,1.32292 H 14.43964 v -3.96875 h 3.96875 v -2.64583 c -1.763888,0 -3.527777,0 -5.291666,0 v 1.32292 H 10.47089 v -3.96875 h 10.583334 z" />
      <path
         id="frame.2"
         style="opacity:1;fill:#ff9999;fill-opacity:0.6;stroke:#333333;stroke-width:0.5291667;stroke-linecap:butt;stroke-linejoin:miter;stroke-miterlimit:4;stroke-dasharray:none;stroke-opacity:1"
         d="m 14.43964,278.73829 h 2.645834 v 2.64583 h -2.645833 z m -3.96875,5.29166 3.968749,1e-5 1e-6,-1.32292 h 2.645834 v 3.96875 h -3.96875 v 2.64583 c 1.763888,0 3.527777,0 5.291666,0 v -1.32292 h 2.645834 v 3.96875 H 10.47089 Z" />
    </g>
  </g>
</svg>
