<?xml version="1.0" encoding="UTF-8" standalone="no"?>
<svg
   xmlns:dc="http://purl.org/dc/elements/1.1/"
   xmlns:cc="http://creativecommons.org/ns#"
   xmlns:rdf="http://www.w3.org/1999/02/22-rdf-syntax-ns#"
   xmlns:svg="http://www.w3.org/2000/svg"
   xmlns="http://www.w3.org/2000/svg"
   xmlns:xlink="http://www.w3.org/1999/xlink"
   width="145"
   height="155"
   viewBox="0 0 38.364583 41.010417"
   version="1.1"
   id="svg8">
  <defs
     id="defs2">
    <linearGradient
       id="linearGradient916">
      <stop
         style="stop-color:#e54c18;stop-opacity:1"
         offset="0"
         id="stop912" />
      <stop
         style="stop-color:#fec350;stop-opacity:1"
         offset="1"
         id="stop914" />
    </linearGradient>
    <linearGradient
       xlink:href="#linearGradient916"
       id="linearGradient918"
       x1="1.2104727"
       y1="284.02997"
       x2="31.637556"
       y2="286.67581"
       gradientUnits="userSpaceOnUse"
       gradientTransform="translate(7.8522166e-7,-3.9687567)" />
    <linearGradient
       xlink:href="#linearGradient916"
       id="linearGradient922"
       gradientUnits="userSpaceOnUse"
       x1="1.2104727"
       y1="286.67581"
       x2="31.637556"
       y2="284.02997"
       gradientTransform="matrix(1,0,0,-1,7.8522166e-7,566.737)" />
    <filter
       style="color-interpolation-filters:sRGB"
       id="filter938"
       x="-0.1226087"
       width="1.2452174"
       y="-0.1175"
       height="1.235">
      <feGaussianBlur
         stdDeviation="1.5544271"
         id="feGaussianBlur940" />
    </filter>
  </defs>
  <metadata
     id="metadata5">
    <rdf:RDF>
      <cc:Work
         rdf:about="">
        <dc:format>image/svg+xml</dc:format>
        <dc:type
           rdf:resource="http://purl.org/dc/dcmitype/StillImage" />
        <dc:title />
      </cc:Work>
    </rdf:RDF>
  </metadata>
  <g
     id="layer1"
     transform="translate(2.7582766,-261.54038)">
    <path
       style="fill:#666666;fill-opacity:0.4;stroke:none;stroke-width:0.5291667;stroke-linecap:butt;stroke-linejoin:miter;stroke-miterlimit:4;stroke-dasharray:none;stroke-opacity:1;filter:url(#filter938)"
       d="m 1.2104735,266.83204 6.1737832,9.26041 H 1.2104735 v 9.26042 7.9375 h 3.5279488 l -3.5279488,5.29167 h 3.9687499 l 3.5279499,-5.29167 H 18.84919 l 3.52795,5.29167 h 9.260416 l -3.52795,-5.29167 h 3.52795 v -7.9375 -9.26042 h -6.173783 l 6.173783,-9.26041 h -3.96875 l -6.173783,9.26041 h -4.85035 l -6.173783,-9.26041 z m 3.9687499,11.90625 h 3.96875 l 2.6458336,3.96875 -3.5279502,5.29166 H 5.1792234 v -2.64583 z m 13.2291666,0 h 1.322916 l -5.291666,7.9375 0.882116,1.32291 h -3.087149 z m 5.291666,0 h 3.96875 v 6.61458 2.64583 h -3.086633 l -3.52795,-5.29166 z"
       id="path926" />
    <path
       id="path920"
       d="m 5.1792241,281.38412 4e-7,-6.61459 H 27.668808 l -10e-7,6.61459 m 3.96875,0 v -9.26042 0 H 1.2104739 l 3e-7,9.26042"
       style="fill:url(#linearGradient922);fill-opacity:1;stroke:#000000;stroke-width:0.5291667;stroke-linecap:butt;stroke-linejoin:miter;stroke-miterlimit:4;stroke-dasharray:none;stroke-opacity:1" />
    <path
       id="path908"
       style="opacity:1;fill:#000000;fill-opacity:1;stroke:none;stroke-width:1.32291663;stroke-linecap:butt;stroke-linejoin:miter;stroke-miterlimit:2;stroke-dasharray:none;stroke-opacity:1"
       d="m 22.37714,294.61329 h 9.260417 l -10.583334,-15.875 10.583334,-15.875 h -3.96875 L 14.43964,282.70704 Z m -11.90625,-31.75 H 1.2104735 l 10.5833335,15.875 -10.5833335,15.875 H 5.1792234 L 18.40839,274.76954 Z" />
    <path
       style="fill:url(#linearGradient918);fill-opacity:1;stroke:#000000;stroke-width:0.5291667;stroke-linecap:butt;stroke-linejoin:miter;stroke-miterlimit:4;stroke-dasharray:none;stroke-opacity:1"
       d="m 5.1792241,281.38412 v 2.64583 H 27.668807 v -2.64583 m 3.96875,0 v 7.9375 0 H 1.2104742 v -7.9375"
       id="path910" />
  </g>
</svg>
