<?xml version="1.0" encoding="UTF-8" standalone="no"?>
<svg
   xmlns:dc="http://purl.org/dc/elements/1.1/"
   xmlns:cc="http://creativecommons.org/ns#"
   xmlns:rdf="http://www.w3.org/1999/02/22-rdf-syntax-ns#"
   xmlns:svg="http://www.w3.org/2000/svg"
   xmlns="http://www.w3.org/2000/svg"
   xmlns:xlink="http://www.w3.org/1999/xlink"
   width="140"
   height="145"
   viewBox="0 0 37.041666 38.364584"
   version="1.1"
   id="svg8">
  <defs
     id="defs2">
    <linearGradient
       id="fill">
      <stop
         id="stop849"
         offset="0"
         style="stop-color:#cccccc;stop-opacity:1;" />
      <stop
         id="stop851"
         offset="1"
         style="stop-color:#ffffff;stop-opacity:1" />
    </linearGradient>
    <linearGradient
       xlink:href="#fill"
       id="linearGradient923"
       x1="-1.43536"
       y1="294.61328"
       x2="-1.43536"
       y2="265.50912"
       gradientUnits="userSpaceOnUse" />
    <filter
       style="color-interpolation-filters:sRGB"
       id="filter968"
       x="-0.11999999"
       width="1.24"
       y="-0.12000001"
       height="1.24">
      <feGaussianBlur
         stdDeviation="1.4552082"
         id="feGaussianBlur970" />
    </filter>
  </defs>
  <metadata
     id="metadata5">
    <rdf:RDF>
      <cc:Work
         rdf:about="">
        <dc:format>image/svg+xml</dc:format>
        <dc:type
           rdf:resource="http://purl.org/dc/dcmitype/StillImage" />
        <dc:title />
      </cc:Work>
    </rdf:RDF>
  </metadata>
  <g
     id="layer1"
     transform="translate(2.7582766,-264.18621)">
    <path
       d="m 10.47089,285.35288 v -2.64584 l 10.583333,10e-6 v 2.64583 z m -9.2604166,-15.875 v 29.10416 H 30.31464 v -29.10416 z m 5.2916667,5.29166 H 25.022973 v 18.52084 H 6.5021401 Z"
       style="opacity:1;fill:#666666;fill-opacity:0.4;stroke:none;stroke-width:1.32291663;stroke-linecap:butt;stroke-linejoin:miter;stroke-miterlimit:2;stroke-dasharray:none;stroke-opacity:1;filter:url(#filter968)"
       id="shadow" />
    <path
       id="shape"
       style="opacity:1;fill:url(#linearGradient923);fill-opacity:1;stroke:#333333;stroke-width:1.32291663;stroke-linecap:butt;stroke-linejoin:miter;stroke-miterlimit:2;stroke-dasharray:none;stroke-opacity:1"
       d="m 10.47089,281.38413 v -2.64584 l 10.583333,10e-6 v 2.64583 z m -9.2604166,-15.875 v 29.10416 H 30.31464 v -29.10416 z m 5.2916667,5.29166 H 25.022973 v 18.52084 H 6.5021401 Z" />
  </g>
</svg>
